Forcats
…
How many individuals of each species are present across starwars films

starwars %>% 
  filter(!is.na(species)) %>% 
  count(species, sort = T)

## # A tibble: 37 x 2
##    species      n
##    <chr>    <int>
##  1 Human       35
##  2 Droid        6
##  3 Gungan       3
##  4 Kaminoan     2
##  5 Mirialan     2
##  6 Twi'lek      2
##  7 Wookiee      2
##  8 Zabrak       2
##  9 Aleena       1
## 10 Besalisk     1
## #  with 27 more rows
…
