Lab - Creating functions
…
# Create function for some biomass:length ratio
BM_ratio <- function(data, body_mass, length) {
  ratio <- data %>% 
    mutate(body_mass_ratio = {{body_mass}} / {{length}}) %>%  # create new ratio column
    relocate(body_mass_ratio, .before = {{body_mass}}) # move from end of dataframe so it doesn't get cut off in the output
  return(ratio)
}

Test function

# body mass / bill length ratio
BM_ratio(data = penguins, body_mass = body_mass_g, length = bill_length_mm)

## # A tibble: 344 x 9
##    species island bill_length_mm bill_depth_mm flipper_length_ body_mass_ratio
##    <fct>   <fct>           <dbl>         <dbl>            <int>           <dbl>
##  1 Adelie  Torge           39.1          18.7              181            95.9
##  2 Adelie  Torge           39.5          17.4              186            96.2
##  3 Adelie  Torge           40.3          18                195            80.6
##  4 Adelie  Torge           NA            NA                 NA            NA  
##  5 Adelie  Torge           36.7          19.3              193            94.0
##  6 Adelie  Torge           39.3          20.6              190            92.9
##  7 Adelie  Torge           38.9          17.8              181            93.2
##  8 Adelie  Torge           39.2          19.6              195           119. 
##  9 Adelie  Torge           34.1          18.1              193           102. 
## 10 Adelie  Torge           42            20.2              190           101. 
## #  with 334 more rows, and 3 more variables: body_mass_g <int>, sex <fct>,
## #   year <int>

# body mass / flipper length ratio
BM_ratio(data = penguins, body_mass = body_mass_g, length = flipper_length_mm)

## # A tibble: 344 x 9
##    species island bill_length_mm bill_depth_mm flipper_length_ body_mass_ratio
##    <fct>   <fct>           <dbl>         <dbl>            <int>           <dbl>
##  1 Adelie  Torge           39.1          18.7              181            20.7
##  2 Adelie  Torge           39.5          17.4              186            20.4
##  3 Adelie  Torge           40.3          18                195            16.7
##  4 Adelie  Torge           NA            NA                 NA            NA  
##  5 Adelie  Torge           36.7          19.3              193            17.9
##  6 Adelie  Torge           39.3          20.6              190            19.2
##  7 Adelie  Torge           38.9          17.8              181            20.0
##  8 Adelie  Torge           39.2          19.6              195            24.0
##  9 Adelie  Torge           34.1          18.1              193            18.0
## 10 Adelie  Torge           42            20.2              190            22.4
## #  with 334 more rows, and 3 more variables: body_mass_g <int>, sex <fct>,
## #   year <int>
…
